…
2 - Simulating 5000 datasets when μ = 0

``` r
expand_grid(
  means = 0,
  iteration = 1:5000
) %>%
  mutate(
    estimate_df = map(means, ttest)
  ) %>%
  unnest(estimate_df)
```

    ## # A tibble: 5,000 × 4
    ##    means iteration estimate p.value
    ##    <dbl>     <int>    <dbl>   <dbl>
    ##  1     0         1   -0.197  0.836 
    ##  2     0         2    0.441  0.695 
    ##  3     0         3    0.846  0.448 
    ##  4     0         4   -1.87   0.0234
    ##  5     0         5    2.08   0.0680
    ##  6     0         6   -0.306  0.770 
    ##  7     0         7    0.259  0.731 
    ##  8     0         8    1.92   0.0183
    ##  9     0         9   -0.177  0.829 
    ## 10     0        10    0.141  0.901 
    ## # … with 4,990 more rows
…
